C51 COMPILER V9.59.0.0   MG82F6D17_INT_VECTOR                                              09/29/2020 17:20:10 PAGE 1   


C51 COMPILER V9.59.0.0, COMPILATION OF MODULE MG82F6D17_INT_VECTOR
OBJECT MODULE PLACED IN .\Objects\MG82F6D17_INT_VECTOR.obj
COMPILER INVOKED BY: C:\Keil_v5\C51\BIN\C51.EXE Source\MG82F6D17_INT_VECTOR.c OMF2 OPTIMIZE(0,SPEED) BROWSE INCDIR(.\Sou
                    -rce;.\Include;..\Common\ADC\;..\Common\Beeper\;..\Common\DMA\;..\Common\General\;..\Common\GPIO\;..\Common\GPL\;..\Commo
                    -n\I2C0\;..\Common\IAP\;..\Common\Interrupt\;..\Common\KBI\;..\Common\PCA\;..\Common\Power\;..\Common\Reset\;..\Common\RT
                    -C\;..\Common\SPI\;..\Common\SerialPort0\;..\Common\SerialPort1\;..\Common\SystemClock\;..\Common\TimerCounter\;..\Common
                    -\WDT\) DEBUG PRINT(.\Listings\MG82F6D17_INT_VECTOR.lst) OBJECT(.\Objects\MG82F6D17_INT_VECTOR.obj)

line level    source

   1          /**
   2           ******************************************************************************
   3           *
   4           * @file        MG82F6D17_INT_VECTOR.c
   5           *
   6           * @brief       This is the C code format main file.
   7           *
   8           * @par         Project
   9           *              MG82F6D17
  10           * @version     V1.00
  11           * @date        2020/07/10
  12           * @copyright   Copyright (c) 2019 MegaWin Technology Co., Ltd.
  13           *              All rights reserved.
  14           *
  15           ******************************************************************************
  16           * @par         Disclaimer
  17           *      The Demo software is provided "AS IF"  without any warranty, either
  18           *      expressed or implied, including, but not limited to, the implied warranties
  19           *      of merchantability and fitness for a particular purpose.  The author will
  20           *      not be liable for any special, incidental, consequential or indirect
  21           *      damages due to loss of data or any other reason.
  22           *      These statements agree with the world wide and local dictated laws about
  23           *      authorship and violence against these laws.
  24           ******************************************************************************
  25           @if HIDE
  26           * Modify History:
  27           * #0.01
  28           * #0.02
  29           * #1.00_Kevin_20200710 //bugNum_Authour_Date
  30           * >> Initial Version
  31           @endif
  32           ******************************************************************************
  33           * @internal
  34           * @sign
  35           * @endinternal
  36           */
  37          
  38          #include "MG82F6D17_CONFIG.h"
  39          
  40          
  41          
  42          extern uint16_t delayNmS;
  43          extern uint16_t delayNuS;
  44          
  45          /**
  46           *******************************************************************************
  47           * Interrupts ISR
  48           *******************************************************************************
  49           */
  50          /**
  51           *******************************************************************************
C51 COMPILER V9.59.0.0   MG82F6D17_INT_VECTOR                                              09/29/2020 17:20:10 PAGE 2   

  52           * @brief       External Interrupt 0 Vector Service Routine
  53           * @details
  54           * @return      None
  55           * @note
  56           * @par         Example
  57           * @code
  58           *    ExINT0_IE0_ISR();
  59           * @endcode
  60           *******************************************************************************
  61           */
  62          /// @cond __DRV_Wizard_Without_Doxygen
  63          #if MG82F6D17_INT0_EN
              /// @endcond
              void ExINT0_IE0_ISR(void)  interrupt INT0_ISR_VECTOR
              {
                  _push_(SFRPI);
                  __DRV_INT0_ClearFlag();
                  _pop_(SFRPI);
              }
              /// @cond __DRV_Wizard_Without_Doxygen
              #endif
  73          /// @endcond
  74          
  75          
  76          /**
  77           *******************************************************************************
  78           * @brief       Timer 0 Interrupt Vector Service Routine
  79           * @details
  80           * @return      None
  81           * @note
  82           * @par         Example
  83           * @code
  84           *    TIMER0_TF0_ISR();
  85           * @endcode
  86           *******************************************************************************
  87           */
  88          /// @cond __DRV_Wizard_Without_Doxygen
  89          #if MG82F6D17_TIMER0_IT_EN
  90          /// @endcond
  91          void TIMER0_TF0_ISR(void)   interrupt TIMER0_ISR_VECTOR
  92          {
  93   1          _push_(SFRPI);
  94   1          TL0=LOBYTE(TIMER0_Mode1_Timer_Interval);
  95   1              TH0=HIBYTE(TIMER0_Mode1_Timer_Interval);        
  96   1              if(delayNmS!=0) delayNmS--;
  97   1          DRV_TIMER0_ClearTF0();
  98   1      
  99   1          _pop_(SFRPI);
 100   1      }
 101          /// @cond __DRV_Wizard_Without_Doxygen
 102          #endif
 103          /// @endcond
 104          
 105          
 106          
 107          /**
 108           *******************************************************************************
 109           * @brief       External Interrupt 1 Vector Service Routine
 110           * @details
 111           * @return      None
 112           * @note
 113           * @par         Example
C51 COMPILER V9.59.0.0   MG82F6D17_INT_VECTOR                                              09/29/2020 17:20:10 PAGE 3   

 114           * @code
 115           *    ExINT1_IE1_ISR();
 116           * @endcode
 117           *******************************************************************************
 118           */
 119          /// @cond __DRV_Wizard_Without_Doxygen
 120          #if MG82F6D17_INT1_EN
 121          /// @endcond
 122          void ExINT1_IE1_ISR(void)   interrupt INT1_ISR_VECTOR
 123          {
 124   1          _push_(SFRPI);
 125   1          __DRV_INT1_ClearFlag();//Wakeup from Sleep Mode
 126   1          _pop_(SFRPI);
 127   1      }
 128          /// @cond __DRV_Wizard_Without_Doxygen
 129          #endif
 130          /// @endcond
 131          
 132          
 133          
 134          /**
 135           *******************************************************************************
 136           * @brief       Timer 1 Interrupt Vector Service Routine
 137           * @details
 138           * @return      None
 139           * @note
 140           * @par         Example
 141           * @code
 142           *    TIMER1_TF1_ISR();
 143           * @endcode
 144           *******************************************************************************
 145           */
 146          /// @cond __DRV_Wizard_Without_Doxygen
 147          #if MG82F6D17_TIMER1_IT_EN
 148          /// @endcond
 149          void TIMER1_TF1_ISR(void)   interrupt TIMER1_ISR_VECTOR
 150          {
 151   1          _push_(SFRPI);
 152   1          TL1=LOBYTE(TIMER1_Mode1_Timer_Interval);
 153   1              TH1=HIBYTE(TIMER1_Mode1_Timer_Interval);
 154   1              if(delayNuS!=0) delayNuS--;
 155   1          DRV_TIMER1_ClearTF1();
 156   1          _pop_(SFRPI);
 157   1      }
 158          /// @cond __DRV_Wizard_Without_Doxygen
 159          #endif
 160          /// @endcond
 161          
 162          
 163          
 164          /**
 165           *******************************************************************************
 166           * @brief       UART0 Interrupt Vector Service Routine
 167           * @details
 168           * @return      None
 169           * @note
 170           * @par         Example
 171           * @code
 172           *    UART0_S0RI_S0TI_ISR();
 173           * @endcode
 174           *******************************************************************************
 175           */
C51 COMPILER V9.59.0.0   MG82F6D17_INT_VECTOR                                              09/29/2020 17:20:10 PAGE 4   

 176          /// @cond __DRV_Wizard_Without_Doxygen
 177          #if MG82F6D17_S0_IT_EN
              /// @endcond
              void UART0_S0RI_S0TI_ISR(void)   interrupt S0_ISR_VECTOR
              {
                  _push_(SFRPI);
              
                  _pop_(SFRPI);
              }
              /// @cond __DRV_Wizard_Without_Doxygen
              #endif
 187          /// @endcond
 188          
 189          
 190          
 191          /**
 192           *******************************************************************************
 193           * @brief       Timer 2 Interrupt Vector Service Routine
 194           * @details
 195           * @return      None
 196           * @note
 197           * @par         Example
 198           * @code
 199           *    TIMER2_TF2_EXF2_ISR();
 200           * @endcode
 201           *******************************************************************************
 202           */
 203          /// @cond __DRV_Wizard_Without_Doxygen
 204          #if MG82F6D17_TIMER2_IT_EN
              /// @endcond
              void TIMER2_TF2_EXF2_ISR(void)   interrupt TIMER2_ISR_VECTOR
              {
                  _push_(SFRPI);
              
                  _pop_(SFRPI);
              }
              /// @cond __DRV_Wizard_Without_Doxygen
              #endif
 214          /// @endcond
 215          
 216          
 217          
 218          /**
 219           *******************************************************************************
 220           * @brief       External Interrupt 2 Vector Service Routine
 221           * @details
 222           * @return      None
 223           * @note
 224           * @par         Example
 225           * @code
 226           *    ExINT2_IE2_ISR();
 227           * @endcode
 228           *******************************************************************************
 229           */
 230          /// @cond __DRV_Wizard_Without_Doxygen
 231          #if MG82F6D17_INT2_EN
              /// @endcond
              void ExINT2_IE2_ISR(void)   interrupt INT2_ISR_VECTOR
              {
                  _push_(SFRPI);
                  __DRV_INT2_ClearFlag();
                  _pop_(SFRPI);
C51 COMPILER V9.59.0.0   MG82F6D17_INT_VECTOR                                              09/29/2020 17:20:10 PAGE 5   

              }
              /// @cond __DRV_Wizard_Without_Doxygen
              #endif
 241          /// @endcond
 242          
 243          
 244          
 245          /**
 246           *******************************************************************************
 247           * @brief       SPI Interrupt Vector Service Routine
 248           * @details
 249           * @return      None
 250           * @note
 251           * @par         Example
 252           * @code
 253           *    SPI_SPIF_ISR();
 254           * @endcode
 255           *******************************************************************************
 256           */
 257          /// @cond __DRV_Wizard_Without_Doxygen
 258          #if MG82F6D17_SPI_IT_EN
              /// @endcond
              void SPI_SPIF_ISR(void)   interrupt SPI_ISR_VECTOR
              {
                  _push_(SFRPI);
              
                  _pop_(SFRPI);
              }
              /// @cond __DRV_Wizard_Without_Doxygen
              #endif
 268          /// @endcond
 269          
 270          
 271          
 272          /**
 273           *******************************************************************************
 274           * @brief       ADC Interrupt Vector Service Routine
 275           * @details
 276           * @return      None
 277           * @note
 278           * @par         Example
 279           * @code
 280           *    ADC_ADCI_ISR();
 281           * @endcode
 282           *******************************************************************************
 283           */
 284          /// @cond __DRV_Wizard_Without_Doxygen
 285          #if MG82F6D17_ADC_IT_EN
              /// @endcond
              void ADC_ADCI_ISR(void)   interrupt ADC_ISR_VECTOR
              {
                  _push_(SFRPI);
              
                  _pop_(SFRPI);
              }
              /// @cond __DRV_Wizard_Without_Doxygen
              #endif
 295          /// @endcond
 296          
 297          
 298          
 299          /**
C51 COMPILER V9.59.0.0   MG82F6D17_INT_VECTOR                                              09/29/2020 17:20:10 PAGE 6   

 300           *******************************************************************************
 301           * @brief       PCA 0 Interrupt Vector Service Routine
 302           * @details
 303           * @return      None
 304           * @note
 305           * @par         Example
 306           * @code
 307           *    PCA0_CF_CCFn_ISR();
 308           * @endcode
 309           *******************************************************************************
 310           */
 311          /// @cond __DRV_Wizard_Without_Doxygen
 312          #if MG82F6D17_PCA_IT_EN
              /// @endcond
              void PCA0_CF_CCFn_ISR(void)   interrupt PCA0_ISR_VECTOR
              {
                  _push_(SFRPI);
              
                  _pop_(SFRPI);
              }
              /// @cond __DRV_Wizard_Without_Doxygen
              #endif
 322          /// @endcond
 323          
 324          
 325          
 326          /**
 327           *******************************************************************************
 328           * @brief       System Flag Interrupt Vector Service Routine
 329           * @details
 330           * @return      None
 331           * @note
 332           * @par         Example
 333           * @code
 334           *    SYSFlag_ISR();
 335           * @endcode
 336           *******************************************************************************
 337           */
 338          /// @cond __DRV_Wizard_Without_Doxygen
 339          #if MG82F6D17_SYSFLAG_EN
              /// @endcond
              void SYSFlag_ISR()  interrupt SYSFLAG_ISR_VECTOR
              {
                  _push_(SFRPI);
              
                  _pop_(SFRPI);
              }
              /// @cond __DRV_Wizard_Without_Doxygen
              #endif
 349          /// @endcond
 350          
 351          
 352          
 353          /**
 354           *******************************************************************************
 355           * @brief       KBI Interrupt Vector Service Routine
 356           * @details
 357           * @return      None
 358           * @note
 359           * @par         Example
 360           * @code
 361           *    KBI_KBIF_ISR();
C51 COMPILER V9.59.0.0   MG82F6D17_INT_VECTOR                                              09/29/2020 17:20:10 PAGE 7   

 362           * @endcode
 363           *******************************************************************************
 364           */
 365          /// @cond __DRV_Wizard_Without_Doxygen
 366          #if MG82F6D17_KBI_EN
              /// @endcond
              void KBI_KBIF_ISR()  interrupt KBI_ISR_VECTOR
              {
                  _push_(SFRPI);
                  __DRV_KBI_ClearFlag();
                  _pop_(SFRPI);
              }
              /// @cond __DRV_Wizard_Without_Doxygen
              #endif
 376          /// @endcond
 377          
 378          
 379          
 380          /**
 381           *******************************************************************************
 382           * @brief       I2C0 Interrupt Vector Service Routine
 383           * @details
 384           * @return      None
 385           * @note
 386           * @par         Example
 387           * @code
 388           *    I2C0_SI_ISR();
 389           * @endcode
 390           *******************************************************************************
 391           */
 392          /// @cond __DRV_Wizard_Without_Doxygen
 393          #if MG82F6D17_I2C0_IT_EN
 394          /// @endcond
 395          void I2C0_SI_ISR(void)   interrupt I2C0_ISR_VECTOR
 396          {
 397   1          _push_(SFRPI);
 398   1          Sample_I2C0_ISR_Handle();
 399   1          _pop_(SFRPI);
 400   1      }
 401          /// @cond __DRV_Wizard_Without_Doxygen
 402          #endif
 403          /// @endcond
 404          
 405          
 406          
 407          /**
 408           *******************************************************************************
 409           * @brief       UART1 Interrupt Vector Service Routine
 410           * @details
 411           * @return      None
 412           * @note
 413           * @par         Example
 414           * @code
 415           *    UART1_S1RI_S1TI_ISR();
 416           * @endcode
 417           *******************************************************************************
 418           */
 419          /// @cond __DRV_Wizard_Without_Doxygen
 420          #if MG82F6D17_S1_IT_EN
              /// @endcond
              void UART1_S1RI_S1TI_ISR(void)   interrupt S1_ISR_VECTOR
              {
C51 COMPILER V9.59.0.0   MG82F6D17_INT_VECTOR                                              09/29/2020 17:20:10 PAGE 8   

                  _push_(SFRPI);
              
                  _pop_(SFRPI);
              }
              /// @cond __DRV_Wizard_Without_Doxygen
              #endif
 430          /// @endcond
 431          
 432          
 433          
 434          /**
 435           *******************************************************************************
 436           * @brief       Timer 3 Interrupt Vector Service Routine
 437           * @details
 438           * @return      None
 439           * @note
 440           * @par         Example
 441           * @code
 442           *    TIMER3_TF3_EXF3_ISR();
 443           * @endcode
 444           *******************************************************************************
 445           */
 446          /// @cond __DRV_Wizard_Without_Doxygen
 447          #if MG82F6D17_TIMER3_IT_EN
              /// @endcond
              void TIMER3_TF3_EXF3_ISR(void)   interrupt TIMER3_ISR_VECTOR
              {
                  _push_(SFRPI);
              
                  _pop_(SFRPI);
              }
              /// @cond __DRV_Wizard_Without_Doxygen
              #endif
 457          /// @endcond
 458          
 459          
 460          
 461          /**
 462           *******************************************************************************
 463           * @brief       DMA Interrupt Vector Service Routine
 464           * @details
 465           * @return      None
 466           * @note
 467           * @par         Example
 468           * @code
 469           *    DMA_DCF0_ISR();
 470           * @endcode
 471           *******************************************************************************
 472           */
 473          /// @cond __DRV_Wizard_Without_Doxygen
 474          #if MG82F6D17_DMA_IT_EN
              /// @endcond
              void DMA_DCF0_ISR(void)   interrupt DMA_ISR_VECTOR
              {
                  _push_(SFRPI);
                  __DRV_DMA_ClearCompleteFlag();
                  _pop_(SFRPI);
              }
              /// @cond __DRV_Wizard_Without_Doxygen
              #endif
 484          /// @endcond
 485          
C51 COMPILER V9.59.0.0   MG82F6D17_INT_VECTOR                                              09/29/2020 17:20:10 PAGE 9   



MODULE INFORMATION:   STATIC OVERLAYABLE
   CODE SIZE        =    248    ----
   CONSTANT SIZE    =   ----    ----
   XDATA SIZE       =   ----    ----
   PDATA SIZE       =   ----    ----
   DATA SIZE        =   ----    ----
   IDATA SIZE       =   ----    ----
   BIT SIZE         =   ----    ----
   EDATA SIZE       =   ----    ----
   HDATA SIZE       =   ----    ----
   XDATA CONST SIZE =   ----    ----
   FAR CONST SIZE   =   ----    ----
END OF MODULE INFORMATION.


C51 COMPILATION COMPLETE.  0 WARNING(S),  0 ERROR(S)
