C51 COMPILER V9.59.0.0   MG82F6D17_I2C0_MID                                                09/29/2020 17:20:11 PAGE 1   


C51 COMPILER V9.59.0.0, COMPILATION OF MODULE MG82F6D17_I2C0_MID
OBJECT MODULE PLACED IN .\Objects\MG82F6D17_I2C0_MID.obj
COMPILER INVOKED BY: C:\Keil_v5\C51\BIN\C51.EXE ..\Common\I2C0\MG82F6D17_I2C0_MID.c OMF2 OPTIMIZE(0,SPEED) BROWSE INCDIR
                    -(.\Source;.\Include;..\Common\ADC\;..\Common\Beeper\;..\Common\DMA\;..\Common\General\;..\Common\GPIO\;..\Common\GPL\;..
                    -\Common\I2C0\;..\Common\IAP\;..\Common\Interrupt\;..\Common\KBI\;..\Common\PCA\;..\Common\Power\;..\Common\Reset\;..\Com
                    -mon\RTC\;..\Common\SPI\;..\Common\SerialPort0\;..\Common\SerialPort1\;..\Common\SystemClock\;..\Common\TimerCounter\;..\
                    -Common\WDT\) DEBUG PRINT(.\Listings\MG82F6D17_I2C0_MID.lst) OBJECT(.\Objects\MG82F6D17_I2C0_MID.obj)

line level    source

   1          /**
   2           ******************************************************************************
   3           *
   4           * @file        MG82F6D17_I2C0_MID.C
   5           *
   6           * @brief       This is the C code format driver source file.
   7           *
   8           * @par         Project
   9           *              MG82F6D17
  10           * @version     v1.00
  11           * @date        2020/07/10
  12           * @copyright   Copyright (c) 2019 MegaWin Technology Co., Ltd.
  13           *              All rights reserved.
  14           *
  15           ******************************************************************************
  16           * @par         Disclaimer
  17           *      The Demo software is provided "AS IF"  without any warranty, either
  18           *      expressed or implied, including, but not limited to, the implied warranties
  19           *      of merchantability and fitness for a particular purpose.  The author will
  20           *      not be liable for any special, incidental, consequential or indirect
  21           *      damages due to loss of data or any other reason.
  22           *      These statements agree with the world wide and local dictated laws about
  23           *      authorship and violence against these laws.
  24           ******************************************************************************
  25           @if HIDE
  26           * Modify History:
  27           * #0.07_Kevin_20200526 //bugNum_Authour_Date
  28           * #1.00_Kevin_20200710 //bugNum_Authour_Date
  29           * >> Initial Version
  30           @endif
  31           ******************************************************************************
  32           * @internal
  33           * @sign
  34           * @endinternal
  35           */
  36          
  37          #include "MG82F6D17_CONFIG.h"
  38          
  39          
  40           /**
  41           *******************************************************************************
  42           * @brief       I2C0 Master Byte Write 
  43           * @details     
  44           * @return      No
  45           * @note        
  46           * @par         Example
  47           * @code        
  48                          Sample_I2C0_Master_Byte_Write(uint8_t Address, uint8_t Data);
  49           * @endcode     
  50           * @bug
  51           *******************************************************************************
C51 COMPILER V9.59.0.0   MG82F6D17_I2C0_MID                                                09/29/2020 17:20:11 PAGE 2   

  52           */
  53          
  54          void Sample_I2C0_Master_Byte_Write(uint8_t I2C0_Address, uint8_t I2C0_Data)
  55          {
  56   1          __DRV_I2C0_SetSTART();
  57   1          __DRV_I2C0_ClearEventFlag();
  58   1          __DRV_I2C0_PollForStateComplete();
  59   1          __DRV_I2C0_ClearSTART();
  60   1          
  61   1          __DRV_I2C0_SetAddressWrite(I2C0_Address);
  62   1          __DRV_I2C0_ClearEventFlag();
  63   1          __DRV_I2C0_PollForStateComplete();
  64   1          
  65   1          __DRV_I2C0_SetBufData(I2C0_Data);
  66   1          __DRV_I2C0_ClearEventFlag();
  67   1          __DRV_I2C0_PollForStateComplete();    
  68   1      
  69   1          __DRV_I2C0_SetSTOP();
  70   1          __DRV_I2C0_ClearEventFlag();
  71   1          __DRV_I2C0_PollForStopComplete();     
  72   1      }
  73          
  74          
  75          /**
  76           *******************************************************************************
  77           * @brief       I2C0 Master Byte Read 
  78           * @details     
  79           * @return      Data_Temp
  80           * @note        
  81           * @par         Example
  82           * @code        
  83                          Sample_I2C0_Master_Byte_Read(uint8_t Address);
  84           * @endcode     
  85           * @bug
  86           *******************************************************************************
  87           */
  88          
  89          uint8_t Sample_I2C0_Master_Byte_Read(uint8_t I2C0_Address)
  90          {
  91   1          uint8_t Data_Temp;  
  92   1      
  93   1          __DRV_I2C0_SetSTART();
  94   1          __DRV_I2C0_ClearEventFlag();
  95   1          __DRV_I2C0_PollForStateComplete();
  96   1          __DRV_I2C0_ClearSTART();
  97   1          
  98   1          __DRV_I2C0_SetAddressWrite(I2C0_Address);
  99   1          __DRV_I2C0_ClearEventFlag();
 100   1          __DRV_I2C0_PollForStateComplete();
 101   1      
 102   1          __DRV_I2C0_SetSTART();
 103   1          __DRV_I2C0_ClearEventFlag();
 104   1          __DRV_I2C0_PollForStateComplete();
 105   1          __DRV_I2C0_ClearSTART();
 106   1      
 107   1          __DRV_I2C0_SetAddressRead(I2C0_Address);
 108   1          __DRV_I2C0_ClearEventFlag();
 109   1          __DRV_I2C0_PollForStateComplete(); 
 110   1      
 111   1          Data_Temp = __DRV_I2C0_GetBufData();
 112   1      
 113   1          __DRV_I2C0_SetSTOP();
C51 COMPILER V9.59.0.0   MG82F6D17_I2C0_MID                                                09/29/2020 17:20:11 PAGE 3   

 114   1          __DRV_I2C0_ClearEventFlag();
 115   1          __DRV_I2C0_PollForStopComplete();  
 116   1      
 117   1      
 118   1          return Data_Temp;    
 119   1      }


MODULE INFORMATION:   STATIC OVERLAYABLE
   CODE SIZE        =    202    ----
   CONSTANT SIZE    =   ----    ----
   XDATA SIZE       =   ----    ----
   PDATA SIZE       =   ----    ----
   DATA SIZE        =      4    ----
   IDATA SIZE       =   ----    ----
   BIT SIZE         =   ----    ----
   EDATA SIZE       =   ----    ----
   HDATA SIZE       =   ----    ----
   XDATA CONST SIZE =   ----    ----
   FAR CONST SIZE   =   ----    ----
END OF MODULE INFORMATION.


C51 COMPILATION COMPLETE.  0 WARNING(S),  0 ERROR(S)
